…
``` r
# Step_1
# First modify the dataframe columns names to a more standard format
dailyActivity_merged = read_csv(
  "case_study/Fitabase Data 4.12.16-5.12.16/dailyActivity_merged.csv"
)

dailyActivity_merged = clean_names(dailyActivity_merged)

# Running the below code, we can see we have 33 id/person
dailyActivity_merged %>%
  count(id)
```

    ## # A tibble: 33 × 2
    ##            id     n
    ##         <dbl> <int>
    ##  1 1503960366    31
    ##  2 1624580081    31
    ##  3 1644430081    30
    ##  4 1844505072    31
    ##  5 1927972279    31
    ##  6 2022484408    31
    ##  7 2026352035    31
    ##  8 2320127002    31
    ##  9 2347167796    18
    ## 10 2873212765    31
    ## # … with 23 more rows
…
``` r
dailyActivity_merged %>%
  group_by(activity_date) %>%
  summarize(no_of_participants = n_distinct(id))
```

    ## # A tibble: 31 × 2
    ##    activity_date no_of_participants
    ##    <chr>                      <int>
    ##  1 4/12/2016                     33
    ##  2 4/13/2016                     33
    ##  3 4/14/2016                     33
    ##  4 4/15/2016                     33
    ##  5 4/16/2016                     32
    ##  6 4/17/2016                     32
    ##  7 4/18/2016                     32
    ##  8 4/19/2016                     32
    ##  9 4/20/2016                     32
    ## 10 4/21/2016                     32
    ## # … with 21 more rows
…
*From the following code, we can see that the value of tracker distance
equals the total distance which is the sum of four degrees of active
distance ONLY when there isn’t any value entered for the logged
activities. However we shall not consider that as a cross-field
invalidation and leave the dataframe as it is for now.*

``` r
dailyActivity_merged %>%
  filter(
   tracker_distance == rowSums(dailyActivity_merged[, 7:10]) &
     total_distance == tracker_distance & logged_activities_distance == 0
  )
```

    ## # A tibble: 306 × 15
    ##            id activity_date total_steps total_distance tracker_distance
    ##         <dbl> <date>              <dbl>          <dbl>            <dbl>
    ##  1 1503960366 2016-05-07          11992           7.71             7.71
    ##  2 1503960366 2016-05-12              0           0                0   
    ##  3 1624580081 2016-04-12           8163           5.31             5.31
    ##  4 1624580081 2016-04-13           7007           4.55             4.55
    ##  5 1624580081 2016-04-16           5370           3.49             3.49
    ##  6 1624580081 2016-04-19           2916           1.90             1.90
    ##  7 1624580081 2016-04-20           4974           3.23             3.23
    ##  8 1624580081 2016-04-29           2390           1.55             1.55
    ##  9 1624580081 2016-05-07           2104           1.37             1.37
    ## 10 1624580081 2016-05-09           1732           1.13             1.13
    ## # … with 296 more rows, and 10 more variables:
    ## #   logged_activities_distance <dbl>, very_active_distance <dbl>,
    ## #   moderately_active_distance <dbl>, light_active_distance <dbl>,
    ## #   sedentary_active_distance <dbl>, very_active_minutes <dbl>,
    ## #   fairly_active_minutes <dbl>, lightly_active_minutes <dbl>,
    ## #   sedentary_minutes <dbl>, calories <dbl>
…
``` r
summarized_hourly_data = hourly_sic_merged %>%
  group_by(id) %>%
  summarize(
    avg_calories_per_hour = mean(calories),
    avg_intensities_per_hour = mean(total_intensity),
    avg_steps_per_hour = mean(step_total)
  )

summarized_hourly_data
```

    ## # A tibble: 33 × 4
    ##            id avg_calories_per_hour avg_intensities_per_hour avg_steps_per_hour
    ##         <dbl>                 <dbl>                    <dbl>              <dbl>
    ##  1 1503960366                  78.5                    16.2               522. 
    ##  2 1624580081                  62.5                     8.04              242. 
    ##  3 1644430081                 119.                     10.5               308. 
    ##  4 1844505072                  66.6                     5.02              109. 
    ##  5 1927972279                  91.5                     1.86               38.6
    ##  6 2022484408                 105.                     17.0               478. 
    ##  7 2026352035                  64.9                    10.8               234. 
    ##  8 2320127002                  72.6                     8.74              199. 
    ##  9 2347167796                  88.7                    14.5               414. 
    ## 10 2873212765                  80.2                    15.1               318. 
    ## # … with 23 more rows
…
